<svg width="485" height="133" viewBox="0 0 485 133" fill="none" xmlns="http://www.w3.org/2000/svg">
<path d="M39.6564 132.531C38.6975 132.531 37.7387 132.257 36.7798 131.709C35.8209 131.161 35.3415 130.476 35.3415 129.654C35.3415 127.736 36.7798 126.503 39.6564 125.955C45.4097 124.996 49.2452 123.695 51.1629 122.051C53.2177 120.271 54.2451 117.462 54.2451 113.627V99.4493C54.2451 98.7644 53.8341 98.2849 53.0122 98.0109C52.3273 97.6 51.6424 97.3945 50.9575 97.3945C46.4371 97.3945 38.5606 97.6685 27.328 98.2164C16.9173 98.7644 8.69839 99.0383 2.67116 99.0383C1.98625 99.0383 1.36982 98.9013 0.821894 98.6274C0.273965 98.2164 0 97.737 0 97.189C0 96.6411 0.205474 96.0932 0.616421 95.5453C3.21909 92.2577 5.4793 89.3126 7.39705 86.7099L59.3819 6.78063C60.4778 4.86288 61.7791 3.28758 63.2859 2.05473C64.7927 0.684912 66.231 0 67.6008 0H70.0665C71.0254 0 71.5048 0.547931 71.5048 1.64379C71.5048 2.60267 71.2994 3.28758 70.8884 3.69853L20.3419 81.3676C20.0679 81.7785 19.9309 82.258 19.9309 82.8059C19.9309 83.6278 20.4104 84.0387 21.3693 84.0387H52.3958C52.8067 84.0387 53.2177 83.9017 53.6286 83.6278C54.0396 83.2168 54.2451 82.8744 54.2451 82.6004V55.4779C54.2451 53.4232 54.382 51.9848 54.656 51.1629C55.0669 50.3411 55.8888 49.6561 57.1217 49.1082C59.8613 47.7384 62.9434 46.7795 66.368 46.2316C69.7926 45.6836 72.6007 45.4097 74.7924 45.4097C76.9841 45.4097 78.2855 46.5055 78.6964 48.6973C79.2443 50.752 79.5183 54.5875 79.5183 60.2038V83.6278C79.5183 84.4497 79.8608 84.8606 80.5457 84.8606C82.7374 84.9976 85.2716 85.0661 88.1482 85.0661C89.792 85.0661 93.7645 84.9291 100.066 84.6552C100.751 84.6552 101.299 84.8606 101.709 85.2716C102.257 85.5455 102.531 85.888 102.531 86.2989C102.531 87.9427 101.915 90.2714 100.682 93.285C99.5862 96.1617 98.6959 97.6 98.0109 97.6L88.1482 97.3945C86.7784 97.3945 84.8606 97.5315 82.395 97.8055C81.847 97.9425 81.2991 98.1479 80.7512 98.4219C80.2032 98.6959 79.8608 98.9013 79.7238 99.0383V113.011C79.7238 116.846 80.6142 119.586 82.395 121.229C84.1757 122.873 87.8058 124.449 93.2851 125.955C96.1617 126.777 97.6 128.01 97.6 129.654C97.6 130.476 97.1891 131.161 96.3672 131.709C95.6822 132.12 94.8604 132.325 93.9015 132.325C90.3399 132.325 85.4086 132.188 79.1074 131.914C73.3541 131.64 69.1761 131.503 66.5735 131.503C63.4229 131.503 59.1079 131.64 53.6286 131.914C49.1082 132.325 44.4508 132.531 39.6564 132.531Z" fill="#005092"/>
<path d="M422.066 132.531C421.107 132.531 420.148 132.257 419.189 131.709C418.23 131.161 417.751 130.476 417.751 129.654C417.751 127.736 419.189 126.503 422.066 125.955C427.819 124.996 431.655 123.695 433.572 122.051C435.627 120.271 436.654 117.462 436.654 113.627V99.4493C436.654 98.7644 436.243 98.2849 435.422 98.0109C434.737 97.6 434.052 97.3945 433.367 97.3945C428.846 97.3945 420.97 97.6685 409.737 98.2164C399.327 98.7644 391.108 99.0383 385.081 99.0383C384.396 99.0383 383.779 98.9013 383.231 98.6274C382.683 98.2164 382.409 97.737 382.409 97.189C382.409 96.6411 382.615 96.0932 383.026 95.5453C385.628 92.2577 387.889 89.3126 389.806 86.7099L441.791 6.78063C442.887 4.86288 444.188 3.28758 445.695 2.05473C447.202 0.684912 448.64 0 450.01 0H452.476C453.435 0 453.914 0.547931 453.914 1.64379C453.914 2.60267 453.709 3.28758 453.298 3.69853L402.751 81.3676C402.477 81.7785 402.34 82.258 402.34 82.8059C402.34 83.6278 402.82 84.0387 403.779 84.0387H434.805C435.216 84.0387 435.627 83.9017 436.038 83.6278C436.449 83.2168 436.654 82.8744 436.654 82.6004V55.4779C436.654 53.4232 436.791 51.9848 437.065 51.1629C437.476 50.3411 438.298 49.6561 439.531 49.1082C442.271 47.7384 445.353 46.7795 448.777 46.2316C452.202 45.6836 455.01 45.4097 457.202 45.4097C459.394 45.4097 460.695 46.5055 461.106 48.6973C461.654 50.752 461.928 54.5875 461.928 60.2038V83.6278C461.928 84.4497 462.27 84.8606 462.955 84.8606C465.147 84.9976 467.681 85.0661 470.558 85.0661C472.201 85.0661 476.174 84.9291 482.475 84.6552C483.16 84.6552 483.708 84.8606 484.119 85.2716C484.667 85.5455 484.941 85.888 484.941 86.2989C484.941 87.9427 484.324 90.2714 483.091 93.285C481.996 96.1617 481.105 97.6 480.42 97.6L470.558 97.3945C469.188 97.3945 467.27 97.5315 464.804 97.8055C464.256 97.9425 463.708 98.1479 463.161 98.4219C462.613 98.6959 462.27 98.9013 462.133 99.0383V113.011C462.133 116.846 463.024 119.586 464.804 121.229C466.585 122.873 470.215 124.449 475.694 125.955C478.571 126.777 480.009 128.01 480.009 129.654C480.009 130.476 479.598 131.161 478.777 131.709C478.092 132.12 477.27 132.325 476.311 132.325C472.749 132.325 467.818 132.188 461.517 131.914C455.763 131.64 451.586 131.503 448.983 131.503C445.832 131.503 441.517 131.64 436.038 131.914C431.518 132.325 426.86 132.531 422.066 132.531Z" fill="#005092"/>
<path d="M195.736 64.4169C206.818 68.7069 213.968 75.4994 213.968 75.4994C213.968 72.2819 215.041 68.7069 216.113 65.8469C216.113 65.8469 212.538 59.4119 202.171 52.2619C191.088 44.7544 178.576 42.6094 178.576 42.6094C176.073 48.3294 174.286 54.0494 173.213 60.4844C173.213 60.4844 182.508 59.4119 195.736 64.4169Z" fill="#7FA5D0"/>
<path d="M203.601 42.613C213.968 52.623 217.901 62.633 217.901 62.633C219.688 59.4155 222.548 56.913 225.408 54.768C225.408 54.768 221.476 42.613 215.398 33.6755C208.963 24.738 198.953 17.2305 198.953 17.2305C193.948 21.163 189.658 25.453 185.726 30.458C185.726 30.8155 196.093 35.1055 203.601 42.613Z" fill="#7FA5D0"/>
<path d="M221.834 29.74C226.481 41.895 227.911 53.335 227.911 53.335C231.129 51.5475 235.061 50.475 238.636 50.1175C238.636 50.1175 238.994 38.6775 236.134 26.5225C233.274 12.58 229.699 4 229.699 4C223.621 5.0725 217.544 6.86 212.182 9.3625C212.182 9.3625 218.616 21.5175 221.834 29.74Z" fill="#7FA5D0"/>
<path d="M284.038 64.4169C272.956 68.7069 265.806 75.4994 265.806 75.4994C265.806 72.2819 264.733 68.7069 263.661 65.8469C263.661 65.8469 267.236 59.4119 277.603 52.2619C288.686 44.7544 301.198 42.6094 301.198 42.6094C303.701 48.3294 305.488 54.0494 306.561 60.4844C306.561 60.4844 297.266 59.4119 284.038 64.4169Z" fill="#7FA5D0"/>
<path d="M276.174 42.613C265.806 52.623 261.874 62.633 261.874 62.633C260.086 59.4155 257.226 56.913 254.366 54.768C254.366 54.768 258.299 42.613 264.376 33.6755C270.811 24.738 280.821 17.2305 280.821 17.2305C285.826 21.163 290.116 25.453 294.049 30.458C294.049 30.8155 283.681 35.1055 276.174 42.613Z" fill="#7FA5D0"/>
<path d="M257.941 29.74C253.293 41.895 251.863 53.335 251.863 53.335C248.646 51.5475 244.713 50.475 241.138 50.1175C241.138 50.1175 240.781 38.6775 243.641 26.5225C246.501 12.58 250.076 4 250.076 4C256.153 5.0725 262.231 6.86 267.593 9.3625C267.593 9.3625 261.158 21.5175 257.941 29.74Z" fill="#7FA5D0"/>
<path d="M204.673 105.537C217.543 99.4592 230.771 100.532 230.771 100.532C226.123 98.7442 222.191 95.8842 218.973 91.9517C218.973 91.9517 207.176 90.5217 198.238 92.3092C184.653 95.1692 178.576 99.8167 178.576 99.8167C181.436 105.537 185.011 110.542 188.943 115.189C189.658 115.189 195.021 110.184 204.673 105.537Z" fill="#023466"/>
<path d="M194.663 85.8714C207.891 85.1563 217.186 88.7314 217.186 88.7314C215.398 85.8714 214.326 82.2964 213.968 79.0789C213.968 79.0789 203.601 73.0014 193.591 71.9289C180.006 70.1414 172.498 72.6439 172.498 72.6439C172.498 79.0789 173.571 85.1564 175.716 90.8764C175.716 90.5189 184.296 86.2289 194.663 85.8714Z" fill="#023466"/>
<path d="M239.709 115.546C258.656 115.546 266.879 131.991 266.879 131.991C272.956 129.488 278.319 125.913 282.966 121.981C282.966 121.981 266.879 101.961 239.351 101.961C211.824 101.961 195.736 121.981 195.736 121.981C200.741 126.271 206.104 129.488 211.824 131.991C212.539 131.991 220.761 115.546 239.709 115.546Z" fill="#023466"/>
<path d="M275.101 105.537C262.231 99.4592 249.004 100.532 249.004 100.532C253.651 98.7442 257.584 95.8842 260.801 91.9517C260.801 91.9517 272.599 90.5217 281.536 92.3092C295.121 95.1692 301.199 99.8167 301.199 99.8167C298.339 105.537 294.764 110.542 290.831 115.189C290.116 115.189 284.754 110.184 275.101 105.537Z" fill="#023466"/>
<path d="M285.111 85.8714C271.883 85.1563 262.588 88.7314 262.588 88.7314C264.376 85.8714 265.448 82.2964 265.806 79.0789C265.806 79.0789 276.173 73.0014 286.183 71.9289C299.768 70.1414 307.276 72.6439 307.276 72.6439C307.276 79.0789 306.203 85.1564 304.058 90.8764C304.058 90.5189 295.478 86.2289 285.111 85.8714Z" fill="#023466"/>
</svg>
