<svg width="81" height="81" viewBox="0 0 81 81" fill="none" xmlns="http://www.w3.org/2000/svg">
<g clip-path="url(#clip0)">
<path d="M67.4959 22.2074H13.5041L8.27714 73.5263H72.7229L67.4959 22.2074ZM6.75 14.7305H74.25L81 81.0032H0L6.75 14.7305Z" fill="#F0F0F0"/>
<path d="M32.5962 0.774655L25.1595 7.47692H31.898L32.5962 0.774655ZM49.1028 7.47692L51.3921 29.4545H58.9095L55.8413 0H25.1595L22.0913 29.4545H29.6087L31.898 7.47692H49.1028ZM55.8413 7.47692L48.4046 0.774655L49.1028 7.47692H55.8413ZM48.4046 0.774655L55.8413 7.47692H49.1028L48.4046 0.774655ZM51.3921 29.4545H58.9095L55.8413 0H25.1595L22.0913 29.4545H29.6087L31.898 7.47692H49.1028L51.3921 29.4545ZM32.5962 0.774655L25.1595 7.47692H31.898L32.5962 0.774655Z" fill="#F0F0F0"/>
</g>
<defs>
<clipPath id="clip0">
<rect width="81" height="81" fill="white"/>
</clipPath>
</defs>
</svg>
