<?xml version="1.0" encoding="utf-8"?>
<!-- Generator: Adobe Illustrator 23.0.3, SVG Export Plug-In . SVG Version: 6.00 Build 0)  -->
<svg version="1.1" id="Layer_1" xmlns="http://www.w3.org/2000/svg" xmlns:xlink="http://www.w3.org/1999/xlink" x="0px" y="0px"
	 viewBox="0 0 15 15" style="enable-background:new 0 0 15 15;" xml:space="preserve">
<path id="icon" d="M0,1.4c2.9,0,5.8,0,8.7,0c0,0.2,0,0.4,0,0.7C6,2,3.4,2,0.6,2c0,4.1,0,8.2,0,12.3c4.1,0,8.3,0,12.5,0
	c0-2.5,0-5,0-7.5c0.2,0,0.4,0,0.6,0c0,2.7,0,5.4,0,8.2C9.2,15,4.6,15,0,15C0,10.5,0,5.9,0,1.4z M15,0c-1.7,0-3.3,0-5,0
	c0,0.3,0,0.5,0,0.7c1.3,0,2.6,0,3.9,0C11.5,3.4,9.1,6,6.7,8.6C6.8,8.8,7,8.9,7.1,9.1c2.4-2.6,4.8-5.3,7.2-7.9c0,1.4,0,2.8,0,4.2
	c0.2,0,0.4,0,0.6,0C15,3.6,15,1.8,15,0z"/>
</svg>
