<?xml version="1.0" encoding="utf-8"?>
<!-- Generator: Adobe Illustrator 23.0.3, SVG Export Plug-In . SVG Version: 6.00 Build 0)  -->
<svg version="1.1" id="Layer_1" xmlns="http://www.w3.org/2000/svg" xmlns:xlink="http://www.w3.org/1999/xlink" width="162" height="150" x="0px" y="0px"
	 viewBox="0 0 380.43 353.11" style="enable-background:new 0 0 380.43 353.11;" xml:space="preserve">
<style type="text/css">
	.st0{fill:#F2F2F2;}
</style>
<path id="heart" class="st0" d="M380.43,108.8c-0.63,5.22-1.15,10.46-1.9,15.66c-3.59,24.78-14.32,46.4-29.5,65.99
	c-15.15,19.57-33.45,36.05-51.65,52.65c-18.5,16.87-37.1,33.64-55.13,51c-16.46,15.86-31.14,33.35-43.89,52.39
	c-1.99,2.97-4.14,5.53-7.67,6.62c-0.42,0-0.85,0-1.27,0c-3.46-0.97-5.57-3.49-7.55-6.3c-19.55-27.75-43.32-51.62-68.4-74.28
	c-19.77-17.86-39.86-35.39-59.19-53.72c-17.34-16.45-32.24-34.97-42.12-57.05C2.99,141.24-1.13,119.75,0.26,97.3
	C2.35,63.67,17.6,37.26,44.95,17.95C60,7.33,76.97,1.39,95.45,0.32c39.19-2.27,69.99,13.06,92.95,44.66
	c0.43,0.59,0.9,1.15,1.66,2.13c0.86-1.13,1.6-2.08,2.31-3.05c20.57-28.3,48.37-43.64,83.3-44.05c34.1-0.4,62.05,13.49,83.21,40.43
	c11.77,14.99,18.31,32.19,20.72,51.01c0.33,2.6,0.56,5.22,0.84,7.83C380.43,102.45,380.43,105.63,380.43,108.8z M189.93,332.77
	c3.28-4.34,6.27-8.4,9.38-12.38c19.27-24.69,41.65-46.38,64.85-67.28c21.36-19.24,43.48-37.69,62.85-59.05
	c20.31-22.41,35.13-47.49,37.99-78.37c1.24-13.38,0.67-26.62-3.54-39.47c-12.19-37.15-45.58-61.81-84.74-61.67
	c-29.46,0.11-53.24,12.57-70.99,36.11c-3.41,4.52-5.99,9.68-8.86,14.6c-3.21,5.49-9.54,5.84-13.12,0.61
	c-0.95-1.38-1.62-2.96-2.42-4.45c-19.39-35.93-59.28-53.89-98.15-44.53c-30.71,7.4-52,26.35-63.18,55.97
	c-8.36,22.15-6.6,44.66-0.38,66.94c5.91,21.19,17.73,39.11,32.25,55.38c16.66,18.67,35.61,34.93,54.37,51.38
	c25.94,22.74,51.32,46.04,73.17,72.89C182.84,323.69,186.19,328.05,189.93,332.77z"/>
</svg>
