<svg width="10" height="14" viewBox="0 0 10 14" fill="none" xmlns="http://www.w3.org/2000/svg">
<path d="M1.4 1.4V12.6H8.4V1.4H1.4ZM0.7 0H9.1C9.28565 0 9.4637 0.0737498 9.59498 0.205025C9.72625 0.336301 9.8 0.514348 9.8 0.7V13.3C9.8 13.4857 9.72625 13.6637 9.59498 13.795C9.4637 13.9263 9.28565 14 9.1 14H0.7C0.514349 14 0.336301 13.9263 0.205025 13.795C0.0737499 13.6637 0 13.4857 0 13.3V0.7C0 0.514348 0.0737499 0.336301 0.205025 0.205025C0.336301 0.0737498 0.514349 0 0.7 0ZM4.9 10.5C5.08565 10.5 5.2637 10.5737 5.39498 10.705C5.52625 10.8363 5.6 11.0143 5.6 11.2C5.6 11.3857 5.52625 11.5637 5.39498 11.695C5.2637 11.8263 5.08565 11.9 4.9 11.9C4.71435 11.9 4.5363 11.8263 4.40503 11.695C4.27375 11.5637 4.2 11.3857 4.2 11.2C4.2 11.0143 4.27375 10.8363 4.40503 10.705C4.5363 10.5737 4.71435 10.5 4.9 10.5Z" fill="white"/>
</svg>
