<svg width="9" height="10" viewBox="0 0 9 10" fill="none" xmlns="http://www.w3.org/2000/svg">
<path fill-rule="evenodd" clip-rule="evenodd" d="M4.05 0.5V4.55H0V5.45H4.05V9.5H4.95V5.45H9V4.55H4.95V0.5H4.05Z" fill="white"/>
</svg>
